<svg width="100" height="79" viewBox="0 0 100 79" fill="none" xmlns="http://www.w3.org/2000/svg">
<path d="M75.6836 4C74.8747 4 74.2188 4.65596 74.2188 5.46484V12.2031C74.2188 13.012 74.8747 13.668 75.6836 13.668C76.4925 13.668 77.1484 13.012 77.1484 12.2031V5.46484C77.1484 4.65596 76.4925 4 75.6836 4Z" fill="#4B8F37"/>
<path d="M41.9922 49.7031C41.1836 49.7031 40.5273 50.3594 40.5273 51.168C40.5273 51.9766 41.1836 52.6328 41.9922 52.6328C42.8008 52.6328 43.457 51.9766 43.457 51.168C43.457 50.3594 42.8008 49.7031 41.9922 49.7031Z" fill="#4B8F37"/>
<path d="M96.1914 46.7734C96.1914 43.5426 93.5629 40.9141 90.332 40.9141H79.3967C81.0896 36.5777 81.7749 31.4736 81.6427 26.9301C81.6175 26.063 81.5843 25.5616 81.5393 25.2459C81.4636 22.0809 78.8646 19.5273 75.6836 19.5273C72.4527 19.5273 69.8242 22.1559 69.8242 25.3867V26.8516C69.8242 36.1161 57.9276 41.3214 48.9496 43.5536C48.2708 42.0017 46.7213 40.9141 44.9219 40.9141H30.2734C29.4646 40.9141 28.8086 41.57 28.8086 42.3789V77.5352C28.8086 78.344 29.4646 79 30.2734 79H44.9219C46.7093 79 48.2499 77.9267 48.9357 76.3913C49.6791 76.582 50.3692 76.7622 51.0062 76.9286C56.1208 78.2644 58.9381 79 65.79 79H81.543C84.7738 79 87.4023 76.3715 87.4023 73.1406C87.4023 71.9359 87.0366 70.8153 86.4106 69.8831C88.6735 69.0916 90.332 66.9295 90.332 64.3516C90.332 63.1513 89.9752 62.027 89.3512 61.0905C91.6041 60.2978 93.2617 58.1406 93.2617 55.5625C93.2617 54.3578 92.896 53.2372 92.27 52.305C94.5329 51.5135 96.1914 49.3514 96.1914 46.7734ZM46.3867 74.6055C46.3867 75.4132 45.7296 76.0703 44.9219 76.0703H31.7383V43.8438H44.9219C45.7296 43.8438 46.3867 44.5009 46.3867 45.3086V74.6055ZM90.332 49.7031C87.1901 49.7031 86.4411 49.7031 83.0078 49.7031C82.1989 49.7031 81.543 50.3591 81.543 51.168C81.543 51.9769 82.1989 52.6328 83.0078 52.6328H87.4023C89.0178 52.6328 90.332 53.9471 90.332 55.5625C90.332 57.1806 89.0204 58.4922 87.4023 58.4922H80.0781C79.2692 58.4922 78.6133 59.1481 78.6133 59.957C78.6133 60.7659 79.2692 61.4219 80.0781 61.4219H84.4727C86.0689 61.4219 87.4023 62.697 87.4023 64.3516C87.4023 65.9696 86.0907 67.2812 84.4727 67.2812C81.3307 67.2812 80.5817 67.2812 77.1484 67.2812C76.3396 67.2812 75.6836 67.9372 75.6836 68.7461C75.6836 69.555 76.3396 70.2109 77.1484 70.2109H81.543C83.1584 70.2109 84.4727 71.5252 84.4727 73.1406C84.4727 74.7561 83.1584 76.0703 81.543 76.0703H65.79C59.3144 76.0703 56.7852 75.4098 51.7466 74.0939C51.0084 73.9012 50.1988 73.6898 49.3164 73.4648V46.4841C59.9172 43.959 72.7539 37.7956 72.7539 26.8516V25.3867C72.7539 23.7713 74.0682 22.457 75.6836 22.457C77.2961 22.457 78.6102 23.7692 78.6133 25.3822V25.3867C78.6133 26.0233 79.4078 33.8364 76.2218 40.9141H71.2891C70.4802 40.9141 69.8242 41.57 69.8242 42.3789C69.8242 43.1878 70.4802 43.8438 71.2891 43.8438C72.312 43.8438 88.6624 43.8438 90.332 43.8438C91.9475 43.8438 93.2617 45.158 93.2617 46.7734C93.2617 48.3915 91.9501 49.7031 90.332 49.7031Z" fill="#4B8F37"/>
<path d="M41.9922 55.5625C41.1833 55.5625 40.5273 56.2185 40.5273 57.0273V68.7461C40.5273 69.555 41.1833 70.2109 41.9922 70.2109C42.8011 70.2109 43.457 69.555 43.457 68.7461V57.0273C43.457 56.2185 42.8011 55.5625 41.9922 55.5625Z" fill="#4B8F37"/>
<path d="M63.9648 22.457H58.1055C57.2966 22.457 56.6406 23.113 56.6406 23.9219C56.6406 24.7308 57.2966 25.3867 58.1055 25.3867H63.9648C64.7737 25.3867 65.4297 24.7308 65.4297 23.9219C65.4297 23.113 64.7737 22.457 63.9648 22.457Z" fill="#4B8F37"/>
<path d="M93.2617 22.457H87.4023C86.5935 22.457 85.9375 23.113 85.9375 23.9219C85.9375 24.7308 86.5935 25.3867 87.4023 25.3867H93.2617C94.0706 25.3867 94.7266 24.7308 94.7266 23.9219C94.7266 23.113 94.0706 22.457 93.2617 22.457Z" fill="#4B8F37"/>
<path d="M89.149 10.457C88.5769 9.88511 87.6496 9.88511 87.0773 10.457L82.9349 14.5994C82.3629 15.1714 82.3629 16.099 82.9349 16.6711C83.5072 17.2432 84.4343 17.243 85.0066 16.6711L89.149 12.5287C89.7211 11.9567 89.7211 11.0292 89.149 10.457Z" fill="#4B8F37"/>
<path d="M68.4332 14.5994L64.2908 10.457C63.7186 9.88511 62.7914 9.88511 62.2191 10.457C61.647 11.029 61.647 11.9565 62.2191 12.5287L66.3615 16.6711C66.9339 17.2432 67.861 17.243 68.4332 16.6711C69.0052 16.0991 69.0052 15.1716 68.4332 14.5994Z" fill="#4B8F37"/>
<path d="M0 41.2532C0 41.2532 26.1137 25.7353 46.172 45.4163C46.172 45.4163 39.3597 47.3074 34.0613 47.3074C27.4769 47.3074 17.4102 45.0376 17.4102 45.0376C17.4102 45.0376 24.261 48.7517 29.1414 49.9566C35.5984 51.5508 46.172 50.3361 46.172 50.3361C20.4368 74.5565 0 41.2532 0 41.2532Z" fill="#4B8F37" fill-opacity="0.5"/>
<path d="M4.54135 0.000122984C4.54135 0.000122984 3.78426 18.166 12.1105 34.0614C12.1105 34.0614 16.6915 32.9993 19.6795 32.9259C23.2533 32.8382 28.7627 34.0614 28.7627 34.0614C28.7627 34.0614 22.9701 28.5653 20.058 24.2214C17.4078 20.2681 14.3813 13.2461 14.3813 13.2461C14.3813 13.2461 23.0162 24.0656 29.8981 29.5198C36.7517 34.9516 49.1995 40.8737 49.1995 40.8737C51.4703 -0.378459 4.54135 0.000122984 4.54135 0.000122984Z" fill="#4B8F37" fill-opacity="0.5"/>
</svg>
