<svg width="85" height="103" viewBox="0 0 85 103" fill="none" xmlns="http://www.w3.org/2000/svg">
<path fill-rule="evenodd" clip-rule="evenodd" d="M50 14C54.4993 18.6588 60.0008 19.7409 65.5877 19.3544C58.6077 24.9056 52.9782 33.5837 53.0706 42.0861C53.1204 43.3439 53.3407 44.693 53.6819 46C56.7241 38.8889 58.0035 34.7852 63.5406 28.4822C68.4664 22.8819 75.1123 18.9469 74.9986 16.6632C74.899 14.5832 72.8093 14.6465 70.9328 15.0892C69.6889 15.3773 68.5517 15.827 68.175 15.9324C59.9937 18.1528 57.8045 16.9161 50 14Z" fill="#694115"/>
<path d="M49.1115 95.0881C48.9119 95.0881 48.7241 95.1186 48.5714 95.1797C48.4188 95.2508 48.2779 95.3322 48.1605 95.4441C48.0431 95.5559 47.9491 95.6881 47.8904 95.8407C47.82 95.9932 47.773 96.1458 47.7495 96.3186H50.3444C50.3444 96.1458 50.3209 95.9932 50.2622 95.8407C50.2153 95.6881 50.1331 95.5661 50.0274 95.4441C49.9217 95.3322 49.7926 95.2407 49.6517 95.1797C49.4873 95.1186 49.3112 95.0881 49.1115 95.0881ZM49.7573 98.8814C50.0744 98.8814 50.4031 98.8509 50.7319 98.8C51.0724 98.7492 51.4129 98.6678 51.7652 98.5661V99.6746C51.5538 99.7559 51.2368 99.8271 50.8024 99.8983C50.3679 99.9695 49.9217 100 49.4638 100C48.9941 100 48.5479 99.9492 48.137 99.8475C47.7143 99.7458 47.3503 99.5729 47.0333 99.3492C46.7162 99.1153 46.4697 98.8203 46.2818 98.4441C46.0939 98.078 46 97.6305 46 97.1017C46 96.5831 46.0822 96.1254 46.2583 95.739C46.4344 95.3525 46.6575 95.0271 46.9511 94.7729C47.2446 94.5186 47.5734 94.3254 47.9491 94.1932C48.3249 94.0712 48.7123 94 49.1115 94C49.5342 94 49.91 94.0508 50.274 94.1627C50.6262 94.2746 50.9315 94.4475 51.1898 94.6814C51.4481 94.9153 51.6477 95.2203 51.7886 95.5864C51.9295 95.9627 52 96.4 52 96.8983C52 97.0915 51.9883 97.2644 51.9765 97.3966H47.6556C47.6791 97.661 47.7495 97.8847 47.8552 98.078C47.9726 98.261 48.1135 98.4136 48.3014 98.5356C48.4892 98.6475 48.7006 98.739 48.9472 98.7898C49.2055 98.8508 49.4755 98.8814 49.7573 98.8814Z" fill="#449629"/>
<path d="M58 99.7254C57.8041 99.7966 57.5507 99.8576 57.2627 99.9187C56.9747 99.9695 56.6751 100 56.3525 100C55.8802 100 55.4424 99.939 55.0392 99.8271C54.636 99.7153 54.2788 99.5322 53.9793 99.2881C53.6797 99.0441 53.4378 98.7492 53.265 98.3729C53.0922 98.0068 53 97.5797 53 97.0814C53 96.5322 53.1037 96.0542 53.2995 95.6678C53.4954 95.2712 53.7604 94.9559 54.083 94.7119C54.4055 94.4678 54.7627 94.2847 55.1544 94.1729C55.5576 94.061 55.9493 94 56.3295 94C56.6175 94 56.894 94.0203 57.159 94.0712C57.424 94.1119 57.6659 94.1729 57.8848 94.2542V95.3932C57.6889 95.322 57.4816 95.261 57.2627 95.2203C57.0438 95.1797 56.8018 95.1492 56.5484 95.1492C56.2949 95.1492 56.053 95.1797 55.8226 95.2508C55.5922 95.322 55.3848 95.4237 55.212 95.5763C55.0392 95.7288 54.8894 95.922 54.7857 96.1661C54.682 96.4102 54.6244 96.7051 54.6244 97.0509C54.6244 97.3051 54.6705 97.539 54.7396 97.7627C54.8203 97.9864 54.9355 98.1695 55.0853 98.3322C55.235 98.4847 55.4309 98.617 55.6728 98.7085C55.9147 98.8 56.1913 98.8509 56.5138 98.8509C56.8019 98.8509 57.0668 98.8305 57.2972 98.7797C57.5276 98.7288 57.7581 98.6678 57.9654 98.5966V99.7254H58Z" fill="#449629"/>
<path d="M65 97C65 97.449 64.9258 97.8571 64.788 98.2245C64.6502 98.5918 64.4488 98.9082 64.1838 99.1735C63.9187 99.4388 63.6113 99.6429 63.2403 99.7857C62.8693 99.9286 62.4558 100 62 100C61.5336 100 61.1095 99.9286 60.7385 99.7857C60.3675 99.6429 60.0495 99.4388 59.7951 99.1735C59.5406 98.9082 59.3392 98.5918 59.2014 98.2245C59.0636 97.8571 59 97.449 59 97C59 96.551 59.0742 96.1429 59.212 95.7755C59.3498 95.4082 59.5512 95.0918 59.8162 94.8265C60.0813 94.5612 60.3887 94.3571 60.7597 94.2143C61.1307 94.0714 61.5442 94 62 94C62.4664 94 62.8905 94.0714 63.2615 94.2143C63.6325 94.3571 63.9505 94.5612 64.2049 94.8265C64.4594 95.0918 64.6608 95.4082 64.7986 95.7755C64.9364 96.1429 65 96.551 65 97ZM63.4947 97C63.4947 96.6939 63.4523 96.4286 63.3887 96.1939C63.3145 95.9592 63.2191 95.7653 63.0813 95.6122C62.9541 95.4592 62.7951 95.3367 62.6042 95.2551C62.424 95.1735 62.2226 95.1429 62 95.1429C61.788 95.1429 61.5866 95.1837 61.4064 95.2551C61.2261 95.3367 61.0671 95.449 60.9399 95.6122C60.8127 95.7653 60.7067 95.9592 60.6325 96.1939C60.5583 96.4286 60.5265 96.6939 60.5265 97C60.5265 97.3061 60.5689 97.5714 60.6325 97.8061C60.7067 98.0408 60.8127 98.2347 60.9399 98.3878C61.0777 98.5408 61.2262 98.6633 61.417 98.7449C61.5972 98.8265 61.7986 98.8673 62.0106 98.8673C62.2226 98.8673 62.424 98.8265 62.6042 98.7449C62.7845 98.6633 62.9435 98.551 63.0707 98.3878C63.1979 98.2347 63.3039 98.0408 63.3781 97.8061C63.4523 97.5714 63.4947 97.3061 63.4947 97Z" fill="#449629"/>
<path d="M69.4931 82.5651L69.6456 81.9478C69.3268 82.0968 69.0842 82.1961 68.904 82.2387C68.7238 82.2813 68.405 82.3452 67.9338 82.4232C67.2615 82.5296 66.707 82.6999 66.2635 82.9341C65.8269 83.1683 65.612 83.594 65.612 84.2113C65.612 84.5094 65.7298 84.7435 65.9655 84.9138C66.2011 85.0841 66.4991 85.1622 66.8664 85.1622C67.1229 85.1622 67.4209 85.0983 67.7536 84.9706C68.0862 84.8429 68.4189 84.5803 68.7585 84.1901C69.0912 83.7927 69.3337 83.2534 69.4931 82.5651ZM66.707 79.9468H63.6853C63.914 79.0101 64.4338 78.2012 65.2378 77.5129C66.0486 76.8317 67.3516 76.484 69.1535 76.484C71.7178 76.484 73 77.3284 73 79.0101C73 79.3649 72.9584 79.7268 72.8683 80.0958L71.905 84.63C71.8842 84.701 71.8634 84.8003 71.8287 84.928C71.7941 85.0558 71.7664 85.1622 71.7456 85.2615C71.7317 85.3538 71.7248 85.4957 71.7248 85.6731C71.7248 85.9214 71.7456 86.113 71.7802 86.2337C71.8149 86.3543 71.905 86.4749 72.0505 86.5955V86.6665H69.0149L68.9595 85.6873H68.911C68.6199 85.9782 68.204 86.2691 67.6635 86.553C67.1159 86.8368 66.4229 86.9787 65.5774 86.9787C64.7803 86.9787 64.0734 86.8155 63.4635 86.4962C62.8467 86.1769 62.5418 85.517 62.5418 84.5236C62.5418 83.7714 62.7635 83.1186 63.1932 82.5793C63.6299 82.0329 64.2259 81.6356 64.9813 81.3801C65.5496 81.1956 66.1387 81.0679 66.7556 81.004C67.3724 80.9402 67.9615 80.8763 68.5229 80.8125C69.0842 80.7486 69.4931 80.6067 69.7496 80.3938C70.006 80.1809 70.1307 79.8191 70.1307 79.3011C70.1307 79.0669 70.0406 78.854 69.8743 78.6553C69.701 78.4567 69.3476 78.3573 68.8209 78.3573C68.1833 78.3573 67.6912 78.5134 67.3516 78.8186C67.0051 79.1308 66.7902 79.5068 66.707 79.9468ZM63.02 76.5763L62.5279 78.9321C62.313 78.8824 62.0566 78.8611 61.7517 78.8611C60.9477 78.8611 60.227 79.0953 59.5963 79.5636C58.9656 80.0319 58.5151 80.7273 58.2448 81.6356C58.2171 81.742 58.1894 81.8485 58.1686 81.9549C58.1478 82.0613 58.1201 82.1678 58.0923 82.2742C58.0646 82.3877 58.0369 82.4942 58.0092 82.6006L57.1636 86.6594H54.2667L56.3181 76.7324H59.0834L58.7923 78.1444C59.6794 77.0659 60.8507 76.5266 62.3061 76.5266C62.4655 76.5408 62.7012 76.555 63.02 76.5763ZM54.9528 76.5763L54.4607 78.9321C54.2459 78.8824 53.9894 78.8611 53.6845 78.8611C52.8805 78.8611 52.1598 79.0953 51.5291 79.5636C50.8984 80.0319 50.4479 80.7273 50.1776 81.6356C50.1499 81.742 50.1222 81.8485 50.1014 81.9549C50.0806 82.0613 50.0529 82.1678 50.0251 82.2742C49.9974 82.3877 49.9697 82.4942 49.942 82.6006L49.0964 86.6594H46.1995L48.2509 76.7324H51.0162L50.7251 78.1444C51.6122 77.0659 52.7835 76.5266 54.2389 76.5266C54.4053 76.5408 54.6409 76.555 54.9528 76.5763ZM38.1461 80.777H42.5748C42.6164 80.4648 42.6441 80.1739 42.6441 79.9042C42.6441 79.5636 42.5678 79.2727 42.4154 79.0385C42.2629 78.7973 42.048 78.6199 41.7639 78.4921C41.4797 78.3715 41.154 78.3077 40.7728 78.3077C40.4609 78.3077 40.1491 78.3644 39.8303 78.4851C39.5184 78.5986 39.1996 78.8398 38.8946 79.2088C38.5828 79.5707 38.3333 80.0958 38.1461 80.777ZM41.8055 83.7998H44.7371C44.5777 84.261 44.3351 84.6868 44.0233 85.0841C43.7114 85.4815 43.3302 85.815 42.8866 86.0988C42.4431 86.3827 41.9302 86.6026 41.355 86.7587C40.7798 86.9148 40.1421 87 39.4491 87C38.3125 87 37.3976 86.8013 36.7115 86.4039C36.0254 86.0066 35.5333 85.4886 35.2491 84.8429C34.965 84.2043 34.8264 83.5018 34.8264 82.7283C34.8264 82.0471 34.9373 81.3518 35.1591 80.6351C35.3808 79.9184 35.7343 79.2372 36.2194 78.5915C36.7046 77.9458 37.3422 77.4207 38.1323 77.0233C38.9154 76.6259 39.8649 76.4273 40.9669 76.4273C42.0065 76.4273 43.0253 76.6685 44.0163 77.1581C45.0074 77.6406 45.4995 78.7476 45.4995 80.4648C45.4995 81.0608 45.4163 81.6852 45.243 82.3239H37.8412C37.7927 82.5651 37.7649 82.8277 37.7649 83.1186C37.7649 83.6863 37.9036 84.1617 38.1877 84.5449C38.4719 84.9351 38.9778 85.1267 39.7124 85.1267C40.156 85.1267 40.5857 85.0132 40.9877 84.779C41.3827 84.5449 41.6599 84.2184 41.8055 83.7998ZM27.7849 78.7334L28.2008 76.7466H29.9334L30.5502 73.7805H33.4403L32.8373 76.7466H34.9026L34.5076 78.7334H32.4284L31.4373 83.5089C31.375 83.8069 31.3472 84.0127 31.3472 84.112C31.3472 84.6158 31.6799 84.8642 32.3522 84.8642C32.5393 84.8642 32.8442 84.8074 33.2739 84.6868L32.8581 86.6736C32.0542 86.8581 31.3264 86.9503 30.6819 86.9503C29.7948 86.9503 29.178 86.7871 28.8314 86.4465C28.4849 86.113 28.3116 85.6731 28.3116 85.1267C28.3116 84.8003 28.3532 84.4455 28.4364 84.0552L29.5314 78.7334H27.7849ZM20.4593 78.7334L20.8751 76.7466H22.6078L23.2246 73.7805H26.1146L25.5117 76.7466H27.577L27.182 78.7334H25.1028L24.1117 83.5089C24.0493 83.8069 24.0216 84.0127 24.0216 84.112C24.0216 84.6158 24.3543 84.8642 25.0265 84.8642C25.2137 84.8642 25.5186 84.8074 25.9483 84.6868L25.5325 86.6736C24.7285 86.8581 24.0008 86.9503 23.3563 86.9503C22.4692 86.9503 21.8523 86.7871 21.5058 86.4465C21.1593 86.113 20.986 85.6731 20.986 85.1267C20.986 84.8003 21.0276 84.4455 21.1108 84.0552L22.2058 78.7334H20.4593ZM16.8485 73H19.995L17.1465 86.6665H14L16.8485 73Z" fill="#694115"/>
<path fill-rule="evenodd" clip-rule="evenodd" d="M50.641 19.6411C51.8724 18.3333 49.6436 16.1332 48.3572 17.3593L36.5528 29.8107C34.5717 28.8094 32.0058 30.1717 29.7633 32.4332C25.5877 36.6495 20.738 42.6096 22.2995 44.4282C23.1113 45.3137 23.8473 45.1911 25.2919 43.9174L50.641 19.6411Z" fill="#449629"/>
<path fill-rule="evenodd" clip-rule="evenodd" d="M60 57.2364C60.3848 60.6262 60.9025 62.6467 63.2672 65.178C71.9215 74.4519 87.642 65.5555 84.6197 52.3293C81.7722 39.8803 65.0443 38.289 61.1614 49.7166C61.4622 49.317 62.4557 47.9625 62.7915 47.5702C67.8917 41.6122 77.3576 42.1969 81.2615 48.8951C86.2778 57.488 79.7853 68.3828 70.2634 67.1838C64.4146 66.4436 61.9519 62.5431 60 57.2364Z" fill="#449629"/>
<path fill-rule="evenodd" clip-rule="evenodd" d="M85 2.94324C76.7017 -0.880636 69.2185 -1.92666 64.2578 5.66567C68.2699 4.44646 73.5749 4.23171 79.6036 4.31484C72.6896 5.89427 65.9582 8.07637 63 9.58652C67.0754 16.6108 75.2542 12.0041 85 2.94324Z" fill="#449629"/>
<path fill-rule="evenodd" clip-rule="evenodd" d="M0.65702 48.2681C-0.625022 40.2922 -0.406654 34.4027 4.76378 27.7177C20.7189 7.07658 55.2988 21.8212 49.3113 48.4984C45.5778 65.1202 25.5794 73.5217 11.5473 64.0037L8.66627 61.5265L11.8291 63.5361C21.3458 68.672 33.7295 67.4857 41.1823 59.6075C60.3495 39.3292 34.8918 8.80017 11.329 23.6844C1.84045 29.6785 0.340032 37.8778 0.65702 48.2681Z" fill="#449629"/>
<path fill-rule="evenodd" clip-rule="evenodd" d="M39 49.3166C36.7243 54.0988 33.8553 56.9542 28.6338 58.3714C17.437 61.4152 6.44255 53.0446 7.02193 41.0506C7.60132 28.9869 21.1716 21.1887 31.5447 26.9204L34.0857 28.7076L31.3353 27.3672C20.8435 23.0388 8.96952 29.8386 8.69029 41.1344C8.45994 50.3777 15.0775 57.5336 24.1732 57.764C31.1817 57.9455 35.1397 54.7131 39 49.3166Z" fill="#449629"/>
<path fill-rule="evenodd" clip-rule="evenodd" d="M40.0273 49.9059C38.2759 49.4964 38.937 46.7835 40.7096 47.0139L65.3207 52.2861C66.4672 50.4561 68.3945 49.33 71.5386 49.9251C76.3708 50.9488 78.4528 53.6425 77.9182 55.8051C77.3696 58.1405 73.9864 59.5993 69.5973 58.7612C66.7275 58.1853 65.0886 56.8289 64.8917 54.2823L40.0273 49.9059Z" fill="#449629"/>
<path d="M36.8144 94.5464H37.8668L39.8663 99H39.9014L41.9476 94.5464H43L39.0127 103H37.972L39.3518 100.103L36.8144 94.5464ZM34.546 97.732C34.3472 97.6804 34.1251 97.6392 33.8561 97.5979C33.5872 97.5567 33.2949 97.5258 32.9792 97.5258C32.5348 97.5258 32.184 97.6082 31.9268 97.7732C31.6696 97.9381 31.5526 98.1959 31.5526 98.5464C31.5526 98.7216 31.5877 98.8763 31.6462 99.0103C31.7046 99.1443 31.7982 99.2474 31.9034 99.3402C32.0086 99.4227 32.149 99.4948 32.2893 99.5361C32.4413 99.5773 32.605 99.5979 32.7687 99.5979C32.9908 99.5979 33.2013 99.567 33.4001 99.5155C33.5872 99.4536 33.7626 99.3917 33.9146 99.3093C34.0666 99.2268 34.1952 99.1546 34.3005 99.0722C34.4057 98.9897 34.4875 98.9278 34.5343 98.8866V97.732H34.546ZM34.5928 99.5979H34.5694C34.4759 99.6907 34.3706 99.7938 34.242 99.8866C34.1134 99.9794 33.9614 100.062 33.786 100.134C33.6106 100.206 33.4235 100.268 33.2247 100.309C33.0259 100.351 32.8038 100.371 32.5699 100.371C32.2542 100.371 31.9736 100.33 31.7163 100.247C31.4591 100.165 31.2252 100.041 31.0381 99.8866C30.851 99.732 30.7107 99.5361 30.6055 99.3093C30.5003 99.0825 30.4535 98.8247 30.4535 98.5361C30.4535 98.2577 30.512 98 30.6289 97.7732C30.7458 97.5464 30.9095 97.3608 31.12 97.2062C31.3305 97.0515 31.576 96.9278 31.8683 96.8454C32.1607 96.7629 32.4881 96.7217 32.8388 96.7217C33.1779 96.7217 33.482 96.7526 33.7743 96.8041C34.0549 96.8557 34.3122 96.9072 34.5343 96.9794H34.5577V96.5876C34.5577 96.433 34.546 96.299 34.5226 96.1753C34.4992 96.0619 34.4642 95.9484 34.4057 95.8557C34.2888 95.6598 34.1017 95.5052 33.8444 95.3814C33.5872 95.2577 33.2364 95.1959 32.8038 95.1959C32.4764 95.1959 32.1723 95.2268 31.88 95.2783C31.5877 95.3299 31.3071 95.4021 31.0264 95.4948V94.7216C31.1317 94.6701 31.2603 94.6289 31.4123 94.5876C31.5643 94.5464 31.7163 94.5052 31.88 94.4845C32.0437 94.4536 32.2074 94.433 32.3945 94.4124C32.5699 94.3917 32.757 94.3917 32.9324 94.3917C33.5872 94.3917 34.1134 94.4948 34.5226 94.6907C34.9319 94.8969 35.2359 95.1649 35.423 95.4948C35.4931 95.6186 35.5399 95.7629 35.5633 95.9175C35.5984 96.0722 35.6101 96.2371 35.6101 96.4227V100.206H34.7214L34.5928 99.5979ZM29.4128 100.237C29.3193 100.268 29.179 100.299 29.0036 100.33C28.8165 100.361 28.5943 100.371 28.3371 100.381C27.998 100.381 27.7056 100.34 27.4601 100.268C27.2145 100.196 27.0041 100.093 26.8404 99.9484C26.6767 99.8144 26.548 99.6495 26.4662 99.4536C26.3843 99.2577 26.3493 99.0412 26.3493 98.8041V95.3505H25.1098V94.5567H26.3493V93H27.4016V94.5567H29.331V95.3505H27.4016V98.6495C27.4016 98.7835 27.425 98.9072 27.4718 99.0103C27.5186 99.1237 27.577 99.2165 27.6706 99.299C27.7641 99.3814 27.881 99.4433 28.0214 99.4845C28.1617 99.5361 28.3371 99.5567 28.5358 99.5567C28.6762 99.5567 28.8282 99.5464 28.9802 99.5258C29.1322 99.5052 29.2842 99.4845 29.4128 99.4433V100.237ZM21.1459 96.0619C21.1459 96.2165 21.181 96.3505 21.2628 96.4433C21.333 96.5464 21.4382 96.6289 21.5669 96.6907C21.6955 96.7526 21.8358 96.8041 21.9995 96.8454C22.1632 96.8866 22.3386 96.9175 22.514 96.9485C22.7595 97 22.9934 97.0515 23.2039 97.1031C23.426 97.1649 23.6248 97.2474 23.8002 97.3608C23.9873 97.4742 24.1276 97.6392 24.2445 97.8351C24.3615 98.0309 24.4082 98.2887 24.4082 98.5979C24.4082 98.8866 24.3498 99.134 24.2211 99.3608C24.0925 99.5773 23.9171 99.7629 23.6833 99.9175C23.4494 100.062 23.1805 100.186 22.8531 100.258C22.5374 100.34 22.1749 100.371 21.789 100.371C21.5552 100.371 21.3447 100.361 21.1459 100.34C20.9471 100.32 20.7834 100.289 20.6314 100.258C20.4911 100.227 20.3625 100.186 20.2572 100.155C20.152 100.113 20.0702 100.082 20 100.052V99.2783C20.2689 99.3711 20.5262 99.4433 20.7951 99.5052C21.0641 99.5567 21.3447 99.5876 21.6604 99.5876C21.9059 99.5876 22.1398 99.567 22.3386 99.5258C22.5374 99.4845 22.7128 99.4227 22.8531 99.3505C22.9934 99.268 23.1103 99.1753 23.1922 99.0515C23.274 98.9381 23.3091 98.7938 23.3091 98.6392C23.3091 98.4845 23.274 98.3505 23.2039 98.2474C23.1337 98.1443 23.0402 98.0619 22.9115 97.9897C22.7946 97.9175 22.6543 97.866 22.4906 97.8247C22.3269 97.7835 22.1632 97.7423 21.9878 97.701C21.7656 97.6598 21.5318 97.6082 21.2979 97.5464C21.0641 97.4845 20.8536 97.4021 20.6665 97.299C20.4794 97.1959 20.3157 97.0412 20.1988 96.8557C20.0818 96.6701 20.0234 96.433 20.0234 96.1443C20.0234 95.8454 20.0819 95.5876 20.2105 95.3711C20.3274 95.1546 20.5028 94.9691 20.7133 94.8247C20.9237 94.6804 21.1576 94.5773 21.4382 94.5051C21.7189 94.433 21.9995 94.4021 22.3152 94.4021C22.6777 94.4021 23.0051 94.433 23.3091 94.4948C23.6131 94.5567 23.8937 94.6289 24.1393 94.7216V95.4948C23.8704 95.4124 23.6014 95.3299 23.3325 95.2783C23.0635 95.2165 22.7829 95.1959 22.4906 95.1856C22.245 95.1856 22.0346 95.2062 21.8709 95.2474C21.6955 95.2887 21.5552 95.3505 21.4499 95.433C21.333 95.5155 21.2628 95.6082 21.2044 95.7113C21.1693 95.8144 21.1459 95.9381 21.1459 96.0619Z" fill="#694115"/>
</svg>
