<svg width="99" height="83" viewBox="0 0 99 83" fill="none" xmlns="http://www.w3.org/2000/svg">
<path d="M0 41.2535C0 41.2535 26.1137 25.7355 46.172 45.4165C46.172 45.4165 39.3597 47.3077 34.0613 47.3077C27.4769 47.3077 17.4102 45.0379 17.4102 45.0379C17.4102 45.0379 24.261 48.7519 29.1414 49.9569C35.5984 51.5511 46.172 50.3363 46.172 50.3363C20.4368 74.5567 0 41.2535 0 41.2535Z" fill="#4B8F37" fill-opacity="0.5"/>
<path d="M4.54135 0.000122984C4.54135 0.000122984 3.78426 18.166 12.1105 34.0614C12.1105 34.0614 16.6915 32.9993 19.6795 32.9259C23.2533 32.8382 28.7627 34.0614 28.7627 34.0614C28.7627 34.0614 22.9701 28.5653 20.058 24.2214C17.4078 20.2681 14.3813 13.2461 14.3813 13.2461C14.3813 13.2461 23.0162 24.0656 29.8981 29.5198C36.7517 34.9516 49.1995 40.8737 49.1995 40.8737C51.4703 -0.378459 4.54135 0.000122984 4.54135 0.000122984Z" fill="#4B8F37" fill-opacity="0.5"/>
<path d="M83.3191 33.8968C77.9644 28.5421 69.2514 28.5423 63.8966 33.8969C59.7421 38.0517 58.6882 44.385 61.2742 49.6569C61.6162 50.3541 62.4585 50.6423 63.156 50.3001C63.8533 49.9581 64.1413 49.1155 63.7993 48.4184C61.7429 44.2263 62.5812 39.1898 65.8853 35.8856C70.1433 31.6275 77.0721 31.6272 81.3304 35.8856C85.5887 40.1439 85.5887 47.0725 81.3304 51.3308C78.0329 54.6284 73.0033 55.4704 68.8156 53.4255C68.1171 53.0848 67.2756 53.3743 66.9351 54.0723C66.5945 54.7702 66.8839 55.6121 67.5818 55.9528C69.4995 56.8891 71.5571 57.3442 73.599 57.3442C77.165 57.3442 80.6827 55.9561 83.3191 53.3195C88.6739 47.9646 88.6739 39.2516 83.3191 33.8968Z" fill="#4B8F37"/>
<path d="M65.8935 51.3422C65.3488 50.7883 64.4545 50.7848 63.9008 51.3292C63.347 51.8737 63.3394 52.7641 63.8839 53.3177C64.1591 53.5979 64.5228 53.7382 64.8869 53.7382C65.2427 53.7382 65.5987 53.6041 65.8725 53.3348L65.8807 53.3267C66.4344 52.7822 66.438 51.8959 65.8935 51.3422Z" fill="#4B8F37"/>
<path d="M29.413 58.4184C28.8684 57.8645 27.974 57.861 27.4203 58.4053C26.8666 58.9498 26.859 59.8403 27.4035 60.3939C27.6787 60.674 28.0423 60.8144 28.4064 60.8144C28.7622 60.8144 29.1182 60.6802 29.392 60.4109L29.4002 60.4029C29.954 59.8584 29.9575 58.9721 29.413 58.4184Z" fill="#4B8F37"/>
<path d="M97.5458 48.2071L93.2277 45.5584V41.6586L97.5458 39.0099C98.1354 38.6482 98.3745 37.9117 98.1097 37.2729L95.4116 30.7633C95.1468 30.1245 94.4569 29.7727 93.785 29.9341L88.8589 31.1147L86.1023 28.3583L87.2828 23.4322C87.4438 22.7599 87.0924 22.0701 86.4537 21.8055L79.9441 19.1074C79.305 18.8425 78.5684 19.0815 78.207 19.6712L75.5582 23.9891H71.6585L69.0098 19.6712C68.6479 19.0815 67.9114 18.8425 67.2727 19.1074L60.7632 21.8055C60.1245 22.0701 59.7729 22.7599 59.9341 23.4322L61.1146 28.3583L58.3581 31.1147L53.432 29.9341C52.7601 29.7731 52.07 30.1245 51.8054 30.7633L49.1073 37.2728C48.8425 37.9117 49.0817 38.6484 49.6712 39.0098L53.9893 41.6585V45.5583L49.6712 48.207C49.0816 48.5686 48.8425 49.3052 49.1073 49.944L51.8054 56.4535C52.0702 57.0922 52.7599 57.444 53.432 57.2826L58.3581 56.1021L61.1146 58.8584L59.9341 63.7845C59.773 64.4569 60.1245 65.1466 60.7632 65.4112L67.2727 68.1092C67.9116 68.374 68.6484 68.1349 69.0098 67.5454L71.6585 63.2274H75.5582L78.2069 67.5454C78.4694 67.9733 78.9293 68.2166 79.4061 68.2166C79.5863 68.2166 79.7688 68.1819 79.9441 68.1092L86.4537 65.4112C87.0924 65.1465 87.444 64.4567 87.2828 63.7845L86.1023 58.8584L88.8588 56.1021L93.7849 57.2826C94.4569 57.4438 95.1468 57.0922 95.4115 56.4535L98.1095 49.944C98.3745 49.3052 98.1353 48.5685 97.5458 48.2071ZM93.273 54.2682L88.7484 53.184C88.2732 53.0699 87.7723 53.2112 87.4264 53.557L83.5567 57.4266C83.2109 57.7725 83.0695 58.2732 83.1836 58.7488L84.2678 63.2732L79.9762 65.0519L77.5438 61.0864C77.2882 60.6696 76.8342 60.4155 76.3451 60.4155H70.8712C70.3821 60.4155 69.9281 60.6696 69.6725 61.0864L67.2401 65.0519L62.9485 63.2732L64.0327 58.7488C64.1468 58.2732 64.0054 57.7724 63.6596 57.4266L59.7899 53.557C59.4441 53.2112 58.9433 53.07 58.4679 53.184L53.9434 54.2682L52.1649 49.9766L56.1303 47.5442C56.5471 47.2885 56.8012 46.8346 56.8012 46.3455V40.8715C56.8012 40.3824 56.5472 39.9285 56.1303 39.6728L52.1652 37.2405L53.9437 32.9489L58.4682 34.0331C58.9433 34.1468 59.4443 34.0058 59.7902 33.66L63.6599 29.7904C64.0057 29.4445 64.147 28.9439 64.033 28.4683L62.9488 23.9438L67.2404 22.1652L69.6728 26.1307C69.9284 26.5475 70.3823 26.8016 70.8714 26.8016H76.3454C76.8344 26.8016 77.2884 26.5476 77.5441 26.1307L79.9765 22.1652L84.2681 23.9438L83.1839 28.4683C83.0698 28.9439 83.2111 29.4446 83.5569 29.7904L87.4267 33.66C87.7725 34.0058 88.2732 34.1468 88.7487 34.0331L93.2733 32.9489L95.0518 37.2405L91.0864 39.6728C90.6696 39.9285 90.4155 40.3824 90.4155 40.8715V46.3455C90.4155 46.8346 90.6695 47.2885 91.0864 47.5442L95.0518 49.9766L93.273 54.2682Z" fill="#4B8F37"/>
<path d="M51.502 62.3004C51.5013 61.6091 50.9978 61.0209 50.3149 60.9132L47.0974 60.4056L46.2505 58.3674L48.1611 55.7294C48.5666 55.1695 48.505 54.3979 48.0158 53.9095L44.5698 50.4694C44.0803 49.9807 43.3083 49.9205 42.7491 50.3275L40.1154 52.2436L38.074 51.4006L37.5598 48.1842C37.4507 47.5017 36.862 47 36.1711 47C36.1705 47 36.1698 47 36.1693 47L31.3001 47.0063C30.6087 47.0072 30.0206 47.5106 29.9129 48.1935L29.4055 51.4108L27.3671 52.2577L24.7293 50.3472C24.1693 49.9417 23.3979 50.0033 22.9093 50.4926L19.4692 53.9386C18.9805 54.428 18.9204 55.2001 19.3273 55.7592L21.2435 58.393L20.4006 60.4342L17.1842 60.9486C16.5012 61.0579 15.999 61.6475 16 62.3391L16.0063 67.2082C16.0072 67.8995 16.5106 68.4878 17.1935 68.5955L20.4108 69.103L21.2577 71.1412L19.3472 73.7792C18.9416 74.3392 19.0032 75.1108 19.4924 75.5992L22.9384 79.0393C23.4278 79.5278 24.1998 79.588 24.7591 79.1812L27.3929 77.265L29.4342 78.1079L29.9485 81.3243C30.0576 82.0068 30.6462 82.5085 31.3371 82.5085C31.3377 82.5085 31.3384 82.5085 31.339 82.5085L36.2081 82.5023C36.8995 82.5015 37.4875 81.998 37.5954 81.3152L38.1029 78.0978L40.1411 77.251L42.7792 79.1615C43.3389 79.5669 44.1105 79.5055 44.599 79.0161L48.0392 75.5701C48.5278 75.0806 48.588 74.3085 48.1812 73.7494L46.265 71.1155L47.1079 69.0743L50.3242 68.5599C51.0072 68.4507 51.5092 67.8612 51.5084 67.1696L51.502 62.3004ZM45.8866 66.4213C45.4036 66.4986 44.9956 66.8212 44.8089 67.2732L43.3649 70.7694C43.1783 71.2215 43.2398 71.738 43.5275 72.1335L45.2004 74.433L43.4566 76.1797L41.153 74.5113C40.757 74.2244 40.2405 74.164 39.7887 74.3516L36.2967 75.8024C35.8451 75.9901 35.5234 76.3989 35.4472 76.882L35.0041 79.6914L32.5358 79.6946L32.0868 76.8867C32.0095 76.4038 31.6869 75.9957 31.2348 75.809L27.7385 74.3652C27.5657 74.2939 27.3835 74.2587 27.202 74.2587C26.9093 74.2587 26.6189 74.3502 26.3748 74.5272L24.0755 76.2001L22.3288 74.4563L23.9969 72.1529C24.2838 71.7567 24.3444 71.2401 24.1567 70.7885L22.7058 67.2964C22.5183 66.8449 22.1095 66.5231 21.6263 66.4469L18.817 66.0038L18.8138 63.5355L21.6218 63.0865C22.1048 63.0093 22.5129 62.6867 22.6995 62.2346L24.1433 58.7384C24.3299 58.2864 24.2683 57.7699 23.9806 57.3745L22.3079 55.0751L24.0516 53.3284L26.3549 54.9968C26.7511 55.2838 27.2677 55.3443 27.7194 55.1565L31.2115 53.7057C31.6631 53.5181 31.9848 53.1093 32.0611 52.6261L32.504 49.8167L34.9723 49.8136L35.4213 52.6215C35.4986 53.1045 35.8212 53.5126 36.2732 53.6992L39.7694 55.1432C40.2217 55.3298 40.7379 55.2682 41.1335 54.9806L43.433 53.3079L45.1797 55.0516L43.5116 57.3551C43.2247 57.7512 43.1641 58.2679 43.3518 58.7194L44.8027 62.2115C44.9903 62.6631 45.3991 62.9848 45.8823 63.0611L48.6917 63.5042L48.6948 65.9724L45.8866 66.4213Z" fill="#4B8F37"/>
<path d="M40.1159 58.3914C38.1255 56.401 35.3808 55.4677 32.5869 55.8309C31.8167 55.931 31.2734 56.6365 31.3736 57.4067C31.4738 58.177 32.1795 58.7205 32.9494 58.6199C34.871 58.37 36.7587 59.0117 38.1271 60.3803C39.2959 61.5489 39.9393 63.1025 39.9393 64.7552C39.9393 66.408 39.2957 67.9616 38.1271 69.1304C36.9585 70.299 35.4049 70.9425 33.7521 70.9425C32.0993 70.9425 30.5458 70.2988 29.3771 69.1302C27.9745 67.7276 27.3392 65.7966 27.6338 63.8319C27.7489 63.0638 27.2196 62.3477 26.4515 62.2327C25.6835 62.1178 24.9677 62.647 24.8525 63.415C24.4306 66.2293 25.3787 69.1093 27.3885 71.1191C29.0883 72.819 31.3484 73.7551 33.7522 73.7551C36.1561 73.7551 38.4161 72.819 40.1158 71.1192C41.8155 69.4195 42.7517 67.1594 42.7517 64.7555C42.7517 62.3517 41.8158 60.0911 40.1159 58.3914Z" fill="#4B8F37"/>
</svg>
